Manipulating data with tidyr
…
## [1] 3 2

Reading in tibbles

Tibbles can be read into R using the read_csv() function. Note that the read_csv() function is different than the read.csv() function. Among other things, read_csv() will store the data as a tibble and read.csv() will store the data as a data frame.

Data frames versus tibbles

For some applications, we will need to use data frames and for others tibbles. You will find that some older functions don’t work on tibbles. We can easily convert between them using as.data.frame() or as_tibble():

metadata_tib <- as_tibble(metadata)
metadata_tib

## # A tibble: 30 x 7
##    sample   generation clade   strain cit     run       genome_size
##    <fct>         <int> <fct>   <fct>  <fct>   <fct>           <dbl>
##  1 REL606            0 N/A     REL606 unknown ""               4.62
##  2 REL1166A       2000 unknown REL606 unknown SRR098028        4.63
##  3 ZDB409         5000 unknown REL606 unknown SRR098281        4.6 
##  4 ZDB429        10000 UC      REL606 unknown SRR098282        4.59
##  5 ZDB446        15000 UC      REL606 unknown SRR098283        4.66
##  6 ZDB458        20000 (C1,C2) REL606 unknown SRR098284        4.63
##  7 ZDB464*       20000 (C1,C2) REL606 unknown SRR098285        4.62
##  8 ZDB467        20000 (C1,C2) REL606 unknown SRR098286        4.61
##  9 ZDB477        25000 C1      REL606 unknown SRR098287        4.65
## 10 ZDB483        25000 C3      REL606 unknown SRR098288        4.59
## # … with 20 more rows
…
metadata_tib[25:30, 1:3]

If we leave an index blank, this acts as a wildcard and matches all of the rows or columns:

metadata_tib[22,]

## # A tibble: 1 x 7
##   sample generation clade strain cit   run       genome_size
##   <fct>       <int> <fct> <fct>  <fct> <fct>           <dbl>
## 1 CZB154      33000 Cit+  REL606 plus  SRR098026        4.76

metadata_tib[,1:3]

## # A tibble: 30 x 3
##    sample   generation clade  
##    <fct>         <int> <fct>  
##  1 REL606            0 N/A    
##  2 REL1166A       2000 unknown
##  3 ZDB409         5000 unknown
##  4 ZDB429        10000 UC     
##  5 ZDB446        15000 UC     
##  6 ZDB458        20000 (C1,C2)
##  7 ZDB464*       20000 (C1,C2)
##  8 ZDB467        20000 (C1,C2)
##  9 ZDB477        25000 C1     
## 10 ZDB483        25000 C3     
## # … with 20 more rows

You can also refer to columns by name with quotation marks:

metadata_tib[,"sample"]

## # A tibble: 30 x 1
##    sample  
##    <fct>   
##  1 REL606  
##  2 REL1166A
##  3 ZDB409  
##  4 ZDB429  
##  5 ZDB446  
##  6 ZDB458  
##  7 ZDB464* 
##  8 ZDB467  
##  9 ZDB477  
## 10 ZDB483  
## # … with 20 more rows
…
