Project answers
…
raw %>% 
  separate(NAME, c("gene_name", "BP", "MP", "gene_id", "number"), sep = "\\|\\|") 

## # A tibble: 5,537 x 44
##    GID   YORF  gene_name BP    MP    gene_id number GWEIGHT G0.05  G0.1
##    <chr> <chr> <chr>     <chr> <chr> <chr>   <chr>    <dbl> <dbl> <dbl>
##  1 GENE… A_06… "SFB2   … " ER… " mo… " YNL0… " 108…       1 -0.24 -0.13
##  2 GENE… A_06… ""        " bi… " mo… " YNL0… " 108…       1  0.28  0.13
##  3 GENE… A_06… "QRI7   … " pr… " me… " YDL1… " 108…       1 -0.02 -0.27
##  4 GENE… A_06… "CFT2   … " mR… " RN… " YLR1… " 108…       1 -0.33 -0.41
##  5 GENE… A_06… "SSO2   … " ve… " t-… " YMR1… " 108…       1  0.05  0.02
##  6 GENE… A_06… "PSP2   … " bi… " mo… " YML0… " 108…       1 -0.69 -0.03
##  7 GENE… A_06… "RIB2   … " ri… " ps… " YOL0… " 108…       1 -0.55 -0.3 
##  8 GENE… A_06… "VMA13  … " va… " hy… " YPR0… " 108…       1 -0.75 -0.12
##  9 GENE… A_06… "EDC3   … " de… " mo… " YEL0… " 108…       1 -0.24 -0.22
## 10 GENE… A_06… "VPS5   … " pr… " pr… " YOR0… " 108…       1 -0.16 -0.38
## # … with 5,527 more rows, and 34 more variables: G0.15 <dbl>, G0.2 <dbl>,
## #   G0.25 <dbl>, G0.3 <dbl>, N0.05 <dbl>, N0.1 <dbl>, N0.15 <dbl>,
## #   N0.2 <dbl>, N0.25 <dbl>, N0.3 <dbl>, P0.05 <dbl>, P0.1 <dbl>,
## #   P0.15 <dbl>, P0.2 <dbl>, P0.25 <dbl>, P0.3 <dbl>, S0.05 <dbl>,
## #   S0.1 <dbl>, S0.15 <dbl>, S0.2 <dbl>, S0.25 <dbl>, S0.3 <dbl>,
## #   L0.05 <dbl>, L0.1 <dbl>, L0.15 <dbl>, L0.2 <dbl>, L0.25 <dbl>,
## #   L0.3 <dbl>, U0.05 <dbl>, U0.1 <dbl>, U0.15 <dbl>, U0.2 <dbl>,
## #   U0.25 <dbl>, U0.3 <dbl>

2. The GWEIGHT, GID, and YORF columns we also won’t need so you can get rid of those.

That’s easy with select().

raw %>% 
  separate(NAME, c("gene_name", "BP", "MP", "gene_id", "number"), sep = "\\|\\|") %>% 
  select(-GWEIGHT, -GID, -YORF)

## # A tibble: 5,537 x 41
##    gene_name BP    MP    gene_id number G0.05  G0.1 G0.15  G0.2 G0.25  G0.3
##    <chr>     <chr> <chr> <chr>   <chr>  <dbl> <dbl> <dbl> <dbl> <dbl> <dbl>
##  1 "SFB2   … " ER… " mo… " YNL0… " 108… -0.24 -0.13 -0.21 -0.15 -0.05 -0.05
##  2 ""        " bi… " mo… " YNL0… " 108…  0.28  0.13 -0.4  -0.48 -0.11  0.17
##  3 "QRI7   … " pr… " me… " YDL1… " 108… -0.02 -0.27 -0.27 -0.02  0.24  0.25
##  4 "CFT2   … " mR… " RN… " YLR1… " 108… -0.33 -0.41 -0.24 -0.03 -0.03  0   
##  5 "SSO2   … " ve… " t-… " YMR1… " 108…  0.05  0.02  0.4   0.34 -0.13 -0.14
##  6 "PSP2   … " bi… " mo… " YML0… " 108… -0.69 -0.03  0.23  0.2   0    -0.27
##  7 "RIB2   … " ri… " ps… " YOL0… " 108… -0.55 -0.3  -0.12 -0.03 -0.16 -0.11
##  8 "VMA13  … " va… " hy… " YPR0… " 108… -0.75 -0.12 -0.07  0.02 -0.32 -0.41
##  9 "EDC3   … " de… " mo… " YEL0… " 108… -0.24 -0.22  0.14  0.06  0    -0.13
## 10 "VPS5   … " pr… " pr… " YOR0… " 108… -0.16 -0.38  0.05  0.14 -0.04 -0.01
## # … with 5,527 more rows, and 30 more variables: N0.05 <dbl>, N0.1 <dbl>,
## #   N0.15 <dbl>, N0.2 <dbl>, N0.25 <dbl>, N0.3 <dbl>, P0.05 <dbl>,
## #   P0.1 <dbl>, P0.15 <dbl>, P0.2 <dbl>, P0.25 <dbl>, P0.3 <dbl>,
## #   S0.05 <dbl>, S0.1 <dbl>, S0.15 <dbl>, S0.2 <dbl>, S0.25 <dbl>,
## #   S0.3 <dbl>, L0.05 <dbl>, L0.1 <dbl>, L0.15 <dbl>, L0.2 <dbl>,
## #   L0.25 <dbl>, L0.3 <dbl>, U0.05 <dbl>, U0.1 <dbl>, U0.15 <dbl>,
## #   U0.2 <dbl>, U0.25 <dbl>, U0.3 <dbl>

3. What’s wrong with the column names? How can you fix that?

They’re variables not names and tidy data principles tell us that each variable should be a column. And these are not just not just 1 variable - both nutrient and growth rate are present. We can fix this with gather().

raw %>% 
  separate(NAME, c("gene_name", "BP", "MP", "gene_id", "number"), sep = "\\|\\|") %>% 
  select(-GWEIGHT, -GID, -YORF) %>% 
  gather(variable, expression, G0.05:U0.3 )

## # A tibble: 199,332 x 7
##    gene_name  BP          MP             gene_id number variable expression
##    <chr>      <chr>       <chr>          <chr>   <chr>  <chr>         <dbl>
##  1 "SFB2    … " ER to Go… " molecular f… " YNL0… " 108… G0.05         -0.24
##  2 ""         " biologic… " molecular f… " YNL0… " 108… G0.05          0.28
##  3 "QRI7    … " proteoly… " metalloendo… " YDL1… " 108… G0.05         -0.02
##  4 "CFT2    … " mRNA pol… " RNA binding… " YLR1… " 108… G0.05         -0.33
##  5 "SSO2    … " vesicle … " t-SNARE act… " YMR1… " 108… G0.05          0.05
##  6 "PSP2    … " biologic… " molecular f… " YML0… " 108… G0.05         -0.69
##  7 "RIB2    … " riboflav… " pseudouridy… " YOL0… " 108… G0.05         -0.55
##  8 "VMA13   … " vacuolar… " hydrogen-tr… " YPR0… " 108… G0.05         -0.75
##  9 "EDC3    … " deadenyl… " molecular f… " YEL0… " 108… G0.05         -0.24
## 10 "VPS5    … " protein … " protein tra… " YOR0… " 108… G0.05         -0.16
## # … with 199,322 more rows
…
Task 3: Plots

1. Filter your now cleaned data to contain only the gene LEU1.

clean %>% 
  filter(gene_name == "LEU1") 

## # A tibble: 36 x 8
##    gene_name BP      MP      gene_id number nutrient growth_rate expression
##    <chr>     <chr>   <chr>   <chr>   <chr>  <chr>          <dbl>      <dbl>
##  1 LEU1      leucin… 3-isop… YGL009C " 108… G               0.05      -1.12
##  2 LEU1      leucin… 3-isop… YGL009C " 108… G               0.1       -0.77
##  3 LEU1      leucin… 3-isop… YGL009C " 108… G               0.15      -0.67
##  4 LEU1      leucin… 3-isop… YGL009C " 108… G               0.2       -0.59
##  5 LEU1      leucin… 3-isop… YGL009C " 108… G               0.25      -0.2 
##  6 LEU1      leucin… 3-isop… YGL009C " 108… G               0.3        0.03
##  7 LEU1      leucin… 3-isop… YGL009C " 108… N               0.05      -0.76
##  8 LEU1      leucin… 3-isop… YGL009C " 108… N               0.1       -1.17
##  9 LEU1      leucin… 3-isop… YGL009C " 108… N               0.15      -1.2 
## 10 LEU1      leucin… 3-isop… YGL009C " 108… N               0.2       -1.02
## # … with 26 more rows
…
When leucine is limiting the expression of LEU1 is higher than when any of the other nutrients are limiting.

As growth rate increase the expresison of LEU1 decreases but only in leucine limiting conditions. In all other conditions it increases as growth rate increases.

4. What biological process is LEU1 classified as?

leucine biosynthesis

5. Filter your cleaned data for all genes that are in the same biological process as LEU1.

clean %>% 
  filter(BP == "leucine biosynthesis")

## # A tibble: 144 x 8
##    gene_name BP      MP      gene_id number nutrient growth_rate expression
##    <chr>     <chr>   <chr>   <chr>   <chr>  <chr>          <dbl>      <dbl>
##  1 LEU9      leucin… 2-isop… YOR108W " 108… G               0.05      -0.08
##  2 LEU1      leucin… 3-isop… YGL009C " 108… G               0.05      -1.12
##  3 LEU2      leucin… 3-isop… YCL018W " 108… G               0.05      -0.59
##  4 LEU4      leucin… 2-isop… YNL104C " 108… G               0.05       2.61
##  5 LEU9      leucin… 2-isop… YOR108W " 108… G               0.1       -0.07
##  6 LEU1      leucin… 3-isop… YGL009C " 108… G               0.1       -0.77
##  7 LEU2      leucin… 3-isop… YCL018W " 108… G               0.1       -0.71
##  8 LEU4      leucin… 2-isop… YNL104C " 108… G               0.1        1.53
##  9 LEU9      leucin… 2-isop… YOR108W " 108… G               0.15      -0.66
## 10 LEU1      leucin… 3-isop… YGL009C " 108… G               0.15      -0.67
## # … with 134 more rows
…
