Session 2: Tidyverse
…
Package: dplyr

Important verbs/functions that you learned from this package are:

1. filter

Take a look at the arithmetic and logical operators here

library(gapminder)
library(dplyr)

gapminder %>% filter(year=='2007' & continent=="Asia")

## # A tibble: 33 x 6
##             country continent  year lifeExp        pop  gdpPercap
##              <fctr>    <fctr> <int>   <dbl>      <int>      <dbl>
##  1      Afghanistan      Asia  2007  43.828   31889923   974.5803
##  2          Bahrain      Asia  2007  75.635     708573 29796.0483
##  3       Bangladesh      Asia  2007  64.062  150448339  1391.2538
##  4         Cambodia      Asia  2007  59.723   14131858  1713.7787
##  5            China      Asia  2007  72.961 1318683096  4959.1149
##  6 Hong Kong, China      Asia  2007  82.208    6980412 39724.9787
##  7            India      Asia  2007  64.698 1110396331  2452.2104
##  8        Indonesia      Asia  2007  70.650  223547000  3540.6516
##  9             Iran      Asia  2007  70.964   69453570 11605.7145
## 10             Iraq      Asia  2007  59.545   27499638  4471.0619
## # ... with 23 more rows

2. arrange

gapminder %>% 
  filter(year=='2007' & continent=="Asia") %>%
  arrange(desc(lifeExp))

## # A tibble: 33 x 6
##             country continent  year lifeExp       pop gdpPercap
##              <fctr>    <fctr> <int>   <dbl>     <int>     <dbl>
##  1            Japan      Asia  2007  82.603 127467972 31656.068
##  2 Hong Kong, China      Asia  2007  82.208   6980412 39724.979
##  3           Israel      Asia  2007  80.745   6426679 25523.277
##  4        Singapore      Asia  2007  79.972   4553009 47143.180
##  5      Korea, Rep.      Asia  2007  78.623  49044790 23348.140
##  6           Taiwan      Asia  2007  78.400  23174294 28718.277
##  7           Kuwait      Asia  2007  77.588   2505559 47306.990
##  8             Oman      Asia  2007  75.640   3204897 22316.193
##  9          Bahrain      Asia  2007  75.635    708573 29796.048
## 10          Vietnam      Asia  2007  74.249  85262356  2441.576
## # ... with 23 more rows

3. summarize & group_by

gapminder %>% 
  filter(year=='2007' & continent=="Asia") %>%
  arrange(desc(lifeExp)) %>%
  group_by(country) %>%
  summarize(median=mean(lifeExp))

## # A tibble: 33 x 2
##             country median
##              <fctr>  <dbl>
##  1      Afghanistan 43.828
##  2          Bahrain 75.635
##  3       Bangladesh 64.062
##  4         Cambodia 59.723
##  5            China 72.961
##  6 Hong Kong, China 82.208
##  7            India 64.698
##  8        Indonesia 70.650
##  9             Iran 70.964
## 10             Iraq 59.545
## # ... with 23 more rows
…
