…
Is this data tidy? Why or why not?

Its not. Each observation does not form a row and each variable does not form a column.

Task 2: Data Tidying

Which column contains multiple variables? Split it up so each column represents a single variable.

We need to tell separate() to split on the || character using the sep argument. However, the | character is actually a special character for something called regular expressions, which we dont need to worry about right now. Thats why we need to use the double backslash, which escapes the | character and tells separate() to interpret it like a normal character. If we used sep = "||" this would give us the wrong result.

raw %>% 
  separate(NAME, c("gene_name", "BP", "MP", "gene_id", "number"), sep = "\\|\\|") 

## # A tibble: 5,537 x 44
##    GID   YORF  gene BP    MP    gene numb GWEI   G0.05    G0.1   G0.15
##  * <chr> <chr> <chr> <chr> <chr> <chr> <chr> <int>   <dbl>   <dbl>   <dbl>
##  1 GENE A_06 "SFB " ER " mo " YN " 10     1 -0.240  -0.130  -0.210 
##  2 GENE A_06 ""    " bi " mo " YN " 10     1  0.280   0.130  -0.400 
##  3 GENE A_06 "QRI " pr " me " YD " 10     1 -0.0200 -0.270  -0.270 
##  4 GENE A_06 "CFT " mR " RN " YL " 10     1 -0.330  -0.410  -0.240 
##  5 GENE A_06 "SSO " ve " t- " YM " 10     1  0.0500  0.0200  0.400 
##  6 GENE A_06 "PSP " bi " mo " YM " 10     1 -0.690  -0.0300  0.230 
##  7 GENE A_06 "RIB " ri " ps " YO " 10     1 -0.550  -0.300  -0.120 
##  8 GENE A_06 "VMA " va " hy " YP " 10     1 -0.750  -0.120  -0.0700
##  9 GENE A_06 "EDC " de " mo " YE " 10     1 -0.240  -0.220   0.140 
## 10 GENE A_06 "VPS " pr " pr " YO " 10     1 -0.160  -0.380   0.0500
## # ... with 5,527 more rows, and 33 more variables: G0.2 <dbl>, G0.25
## #   <dbl>, G0.3 <dbl>, N0.05 <dbl>, N0.1 <dbl>, N0.15 <dbl>, N0.2 <dbl>,
## #   N0.25 <dbl>, N0.3 <dbl>, P0.05 <dbl>, P0.1 <dbl>, P0.15 <dbl>, P0.2
## #   <dbl>, P0.25 <dbl>, P0.3 <dbl>, S0.05 <dbl>, S0.1 <dbl>, S0.15 <dbl>,
## #   S0.2 <dbl>, S0.25 <dbl>, S0.3 <dbl>, L0.05 <dbl>, L0.1 <dbl>, L0.15
## #   <dbl>, L0.2 <dbl>, L0.25 <dbl>, L0.3 <dbl>, U0.05 <dbl>, U0.1 <dbl>,
## #   U0.15 <dbl>, U0.2 <dbl>, U0.25 <dbl>, U0.3 <dbl>

The GWEIGHT, GID, and YORF columns we also wont need so you can get rid of those.

Thats easy with select().

raw %>% 
  separate(NAME, c("gene_name", "BP", "MP", "gene_id", "number"), sep = "\\|\\|") %>% 
  select(-GWEIGHT, -GID, -YORF)

## # A tibble: 5,537 x 41
##    gene_ BP    MP     gene numb   G0.05    G0.1   G0.15    G0.2   G0.25
##  * <chr>  <chr> <chr>  <chr> <chr>   <dbl>   <dbl>   <dbl>   <dbl>   <dbl>
##  1 "SFB2 " ER " mol " YN " 10 -0.240  -0.130  -0.210  -0.150  -0.0500
##  2 ""     " bi " mol " YN " 10  0.280   0.130  -0.400  -0.480  -0.110 
##  3 "QRI7 " pr " met " YD " 10 -0.0200 -0.270  -0.270  -0.0200  0.240 
##  4 "CFT2 " mR " RNA " YL " 10 -0.330  -0.410  -0.240  -0.0300 -0.0300
##  5 "SSO2 " ve " t-S " YM " 10  0.0500  0.0200  0.400   0.340  -0.130 
##  6 "PSP2 " bi " mol " YM " 10 -0.690  -0.0300  0.230   0.200   0     
##  7 "RIB2 " ri " pse " YO " 10 -0.550  -0.300  -0.120  -0.0300 -0.160 
##  8 "VMA1 " va " hyd " YP " 10 -0.750  -0.120  -0.0700  0.0200 -0.320 
##  9 "EDC3 " de " mol " YE " 10 -0.240  -0.220   0.140   0.0600  0     
## 10 "VPS5 " pr " pro " YO " 10 -0.160  -0.380   0.0500  0.140  -0.0400
## # ... with 5,527 more rows, and 31 more variables: G0.3 <dbl>, N0.05
## #   <dbl>, N0.1 <dbl>, N0.15 <dbl>, N0.2 <dbl>, N0.25 <dbl>, N0.3 <dbl>,
## #   P0.05 <dbl>, P0.1 <dbl>, P0.15 <dbl>, P0.2 <dbl>, P0.25 <dbl>, P0.3
## #   <dbl>, S0.05 <dbl>, S0.1 <dbl>, S0.15 <dbl>, S0.2 <dbl>, S0.25 <dbl>,
## #   S0.3 <dbl>, L0.05 <dbl>, L0.1 <dbl>, L0.15 <dbl>, L0.2 <dbl>, L0.25
## #   <dbl>, L0.3 <dbl>, U0.05 <dbl>, U0.1 <dbl>, U0.15 <dbl>, U0.2 <dbl>,
## #   U0.25 <dbl>, U0.3 <dbl>

Whats wrong with the column names? How can you fix that?

Theyre variables not names and tidy data principles tell us that each variable should be a column. And these are not just not just 1 variable - both nutrient and growth rate are present. We can fix this with gather().

raw %>% 
  separate(NAME, c("gene_name", "BP", "MP", "gene_id", "number"), sep = "\\|\\|") %>% 
  select(-GWEIGHT, -GID, -YORF) %>% 
  gather(variable, expression, G0.05:U0.3 )

## # A tibble: 199,332 x 7
##    gene_name     BP           MP               gene_id numb vari expres
##    <chr>         <chr>        <chr>            <chr>   <chr> <chr>   <dbl>
##  1 "SFB2       " " ER to Gol " molecular fun " YNL0 " 10 G0.05 -0.240 
##  2 ""            " biologica " molecular fun " YNL0 " 10 G0.05  0.280 
##  3 "QRI7       " " proteolys " metalloendope " YDL1 " 10 G0.05 -0.0200
##  4 "CFT2       " " mRNA poly " RNA binding "  " YLR1 " 10 G0.05 -0.330 
##  5 "SSO2       " " vesicle f " t-SNARE activ " YMR1 " 10 G0.05  0.0500
##  6 "PSP2       " " biologica " molecular fun " YML0 " 10 G0.05 -0.690 
##  7 "RIB2       " " riboflavi " pseudouridyla " YOL0 " 10 G0.05 -0.550 
##  8 "VMA13      " " vacuolar  " hydrogen-tran " YPR0 " 10 G0.05 -0.750 
##  9 "EDC3       " " deadenyly " molecular fun " YEL0 " 10 G0.05 -0.240 
## 10 "VPS5       " " protein r " protein trans " YOR0 " 10 G0.05 -0.160 
## # ... with 199,322 more rows

Check again: do you have any columns that have multipe variables? Be sure to fix any before you move on.

Why yes, it seems that our variable column is comprised of both nutrient and growth rate. Well have to use separate() again. The trick here is how to specify the correct place to split the variable. We want the first letter in one column (nutrient) and the the remaining part in a second column (growth_rate). If you read the help for the separate() function youll see that if you provide a number to the sep argument it will split at this position. This works great for us. There are other ways to split this variable, however, these require a bit more knowledge of regular expressions. And always go with the simplist soluion you can find.

raw %>% 
  separate(NAME, c("gene_name", "BP", "MP", "gene_id", "number"), sep = "\\|\\|") %>% 
  select(-GWEIGHT, -GID, -YORF) %>% 
  gather(variable, expression, G0.05:U0.3 ) %>% 
  separate(variable, c("nutrient", "growth_rate"), sep = 1)

## # A tibble: 199,332 x 8
##    gene_name     BP         MP           gene_ number nutr grow expres
##  * <chr>         <chr>      <chr>        <chr>  <chr>  <chr> <chr>   <dbl>
##  1 "SFB2       " " ER to G " molecular " YNL " 108 G     0.05  -0.240 
##  2 ""            " biologi " molecular " YNL " 108 G     0.05   0.280 
##  3 "QRI7       " " proteol " metalloen " YDL " 108 G     0.05  -0.0200
##  4 "CFT2       " " mRNA po " RNA bindi " YLR " 108 G     0.05  -0.330 
##  5 "SSO2       " " vesicle " t-SNARE a " YMR " 108 G     0.05   0.0500
##  6 "PSP2       " " biologi " molecular " YML " 108 G     0.05  -0.690 
##  7 "RIB2       " " ribofla " pseudouri " YOL " 108 G     0.05  -0.550 
##  8 "VMA13      " " vacuola " hydrogen- " YPR " 108 G     0.05  -0.750 
##  9 "EDC3       " " deadeny " molecular " YEL " 108 G     0.05  -0.240 
## 10 "VPS5       " " protein " protein t " YOR " 108 G     0.05  -0.160 
## # ... with 199,322 more rows
…
clean = raw %>% 
  separate(NAME, c("gene_name", "BP", "MP", "gene_id", "number"), sep = "\\|\\|") %>% 
  select(-GWEIGHT, -GID, -YORF) %>% 
  gather(variable, expression, G0.05:U0.3 ) %>% 
  separate(variable, c("nutrient", "growth_rate"), sep = 1, convert = TRUE) %>% 
  mutate_at(vars(gene_name:gene_id), trimws)

Task 3: Plots

Filter your now cleaned data to contain only the gene LEU1.

clean %>% 
  filter(gene_name == "LEU1") 

## # A tibble: 36 x 8
##    gene_name BP                   MP      gene numb nutr growt expres
##    <chr>     <chr>                <chr>   <chr> <chr> <chr>  <dbl>   <dbl>
##  1 LEU1      leucine biosynthesis 3-isop YGL0 " 10 G     0.0500 -1.12  
##  2 LEU1      leucine biosynthesis 3-isop YGL0 " 10 G     0.100  -0.770 
##  3 LEU1      leucine biosynthesis 3-isop YGL0 " 10 G     0.150  -0.670 
##  4 LEU1      leucine biosynthesis 3-isop YGL0 " 10 G     0.200  -0.590 
##  5 LEU1      leucine biosynthesis 3-isop YGL0 " 10 G     0.250  -0.200 
##  6 LEU1      leucine biosynthesis 3-isop YGL0 " 10 G     0.300   0.0300
##  7 LEU1      leucine biosynthesis 3-isop YGL0 " 10 N     0.0500 -0.760 
##  8 LEU1      leucine biosynthesis 3-isop YGL0 " 10 N     0.100  -1.17  
##  9 LEU1      leucine biosynthesis 3-isop YGL0 " 10 N     0.150  -1.20  
## 10 LEU1      leucine biosynthesis 3-isop YGL0 " 10 N     0.200  -1.02  
## # ... with 26 more rows
…
When leucine is limiting the expression of LEU1 is higher than when any of the other nutrients are limiting.

As growth rate increase the expresison of LEU1 decreases but only in leucine limiting conditions. In all other conditions it increases as growth rate increases.

What biological process is LEU1 classified as?

leucine biosynthesis

Filter your cleaned data for all genes that are in the same biological process as LEU1.

clean %>% 
  filter(BP == "leucine biosynthesis")

## # A tibble: 144 x 8
##    gene_name BP                   MP      gene numb nutr growt expres
##    <chr>     <chr>                <chr>   <chr> <chr> <chr>  <dbl>   <dbl>
##  1 LEU9      leucine biosynthesis 2-isop YOR1 " 10 G     0.0500 -0.0800
##  2 LEU1      leucine biosynthesis 3-isop YGL0 " 10 G     0.0500 -1.12  
##  3 LEU2      leucine biosynthesis 3-isop YCL0 " 10 G     0.0500 -0.590 
##  4 LEU4      leucine biosynthesis 2-isop YNL1 " 10 G     0.0500  2.61  
##  5 LEU9      leucine biosynthesis 2-isop YOR1 " 10 G     0.100  -0.0700
##  6 LEU1      leucine biosynthesis 3-isop YGL0 " 10 G     0.100  -0.770 
##  7 LEU2      leucine biosynthesis 3-isop YCL0 " 10 G     0.100  -0.710 
##  8 LEU4      leucine biosynthesis 2-isop YNL1 " 10 G     0.100   1.53  
##  9 LEU9      leucine biosynthesis 2-isop YOR1 " 10 G     0.150  -0.660 
## 10 LEU1      leucine biosynthesis 3-isop YGL0 " 10 G     0.150  -0.670 
## # ... with 134 more rows
…
